[
  {
    "model": "auth.user",
    "pk": 1,
    "fields": {
      "password": "pbkdf2_sha256$120000$HvIIDiGLRIt7$9RptVOmdkt6CWEHRtQnJ+vyMdZQ/ejnT7NmBacAGynM=",
      "last_login": null,
      "is_superuser": true,
      "username": "test",
      "first_name": "",
      "last_name": "",
      "email": "",
      "is_staff": true,
      "is_active": true,
      "date_joined": "2018-09-06T06:33:24.340Z",
      "groups": [],
      "user_permissions": []
    }
  }
]